{
  "bg_color": "#0080ff",
  "text_color": "#000000",
  "front_color": "#ffffff",
  "nav_color": "#625ca0",
  "titre": "Bienvenue \u00e0 la bibliothèque !",
  "soustitre": "N'h\u00e9sitez pas \u00e0 consulter et \u00e0 emprunter nos ressources."
}